…
```
DEEPL_API_KEY=your-key-here
```

# Functions
The package provides functions for both subscriptions plans. Functions that call the free API end with a `2`.

## Helpers
### `available_languages`/`available_languages2`
These functions allow you to list all supported languages of the API.

``` r
deeplr::available_languages2()
#> # A tibble: 30 × 2
#>    language name     
#>    <chr>    <chr>    
#>  1 AR       arabic   
#>  2 BG       Bulgarian
#>  3 CS       Czech    
#>  4 DA       Danish   
#>  5 DE       German   
#>  6 EL       Greek    
#>  7 EN       English  
#>  8 ES       Spanish  
#>  9 ET       Estonian 
#> 10 FI       Finnish  
#> # … with 20 more rows
```
…
